%YAML 1.1
%TAG !u! tag:unity3d.com,2011:
--- !u!1 &3418793047888292164
GameObject:
  m_ObjectHideFlags: 0
  m_CorrespondingSourceObject: {fileID: 0}
  m_PrefabInstance: {fileID: 0}
  m_PrefabAsset: {fileID: 0}
  serializedVersion: 6
  m_Component:
  - component: {fileID: 2452954328181595901}
  - component: {fileID: 3829584509564034043}
  m_Layer: 0
  m_Name: Bread
  m_TagString: Untagged
  m_Icon: {fileID: 0}
  m_NavMeshLayer: 0
  m_StaticEditorFlags: 0
  m_IsActive: 1
--- !u!4 &2452954328181595901
Transform:
  m_ObjectHideFlags: 0
  m_CorrespondingSourceObject: {fileID: 0}
  m_PrefabInstance: {fileID: 0}
  m_PrefabAsset: {fileID: 0}
  m_GameObject: {fileID: 3418793047888292164}
  serializedVersion: 2
  m_LocalRotation: {x: 0, y: 0, z: 0, w: 1}
  m_LocalPosition: {x: 1.0759764, y: -3.0446448, z: -6.8619494}
  m_LocalScale: {x: 1, y: 1, z: 1}
  m_ConstrainProportionsScale: 0
  m_Children:
  - {fileID: 3429998212352031900}
  m_Father: {fileID: 0}
  m_LocalEulerAnglesHint: {x: 0, y: 0, z: 0}
--- !u!114 &3829584509564034043
MonoBehaviour:
  m_ObjectHideFlags: 0
  m_CorrespondingSourceObject: {fileID: 0}
  m_PrefabInstance: {fileID: 0}
  m_PrefabAsset: {fileID: 0}
  m_GameObject: {fileID: 3418793047888292164}
  m_Enabled: 1
  m_EditorHideFlags: 0
  m_Script: {fileID: 11500000, guid: b9f31aa4a81b37a41bdab0bc531b1d11, type: 3}
  m_Name: 
  m_EditorClassIdentifier: 
  kitchenObjectSO: {fileID: 11400000, guid: af2c1fdf836f1204dbc4dfa4b0ee9f61, type: 2}
--- !u!1001 &1978138209276602908
PrefabInstance:
  m_ObjectHideFlags: 0
  serializedVersion: 2
  m_Modification:
    serializedVersion: 3
    m_TransformParent: {fileID: 2452954328181595901}
    m_Modifications:
    - target: {fileID: 3812876574508226176, guid: bc49891f572f1164e9938f845ec37ab0,
        type: 3}
      propertyPath: m_LocalPosition.x
      value: 0
      objectReference: {fileID: 0}
    - target: {fileID: 3812876574508226176, guid: bc49891f572f1164e9938f845ec37ab0,
        type: 3}
      propertyPath: m_LocalPosition.y
      value: 0
      objectReference: {fileID: 0}
    - target: {fileID: 3812876574508226176, guid: bc49891f572f1164e9938f845ec37ab0,
        type: 3}
      propertyPath: m_LocalPosition.z
      value: 0
      objectReference: {fileID: 0}
    - target: {fileID: 3812876574508226176, guid: bc49891f572f1164e9938f845ec37ab0,
        type: 3}
      propertyPath: m_LocalRotation.w
      value: 1
      objectReference: {fileID: 0}
    - target: {fileID: 3812876574508226176, guid: bc49891f572f1164e9938f845ec37ab0,
        type: 3}
      propertyPath: m_LocalRotation.x
      value: 0
      objectReference: {fileID: 0}
    - target: {fileID: 3812876574508226176, guid: bc49891f572f1164e9938f845ec37ab0,
        type: 3}
      propertyPath: m_LocalRotation.y
      value: 0
      objectReference: {fileID: 0}
    - target: {fileID: 3812876574508226176, guid: bc49891f572f1164e9938f845ec37ab0,
        type: 3}
      propertyPath: m_LocalRotation.z
      value: 0
      objectReference: {fileID: 0}
    - target: {fileID: 3812876574508226176, guid: bc49891f572f1164e9938f845ec37ab0,
        type: 3}
      propertyPath: m_LocalEulerAnglesHint.x
      value: 0
      objectReference: {fileID: 0}
    - target: {fileID: 3812876574508226176, guid: bc49891f572f1164e9938f845ec37ab0,
        type: 3}
      propertyPath: m_LocalEulerAnglesHint.y
      value: 0
      objectReference: {fileID: 0}
    - target: {fileID: 3812876574508226176, guid: bc49891f572f1164e9938f845ec37ab0,
        type: 3}
      propertyPath: m_LocalEulerAnglesHint.z
      value: 0
      objectReference: {fileID: 0}
    - target: {fileID: 3812876574508226177, guid: bc49891f572f1164e9938f845ec37ab0,
        type: 3}
      propertyPath: m_Name
      value: Bread_Visual
      objectReference: {fileID: 0}
    m_RemovedComponents: []
    m_RemovedGameObjects: []
    m_AddedGameObjects: []
    m_AddedComponents: []
  m_SourcePrefab: {fileID: 100100000, guid: bc49891f572f1164e9938f845ec37ab0, type: 3}
--- !u!4 &3429998212352031900 stripped
Transform:
  m_CorrespondingSourceObject: {fileID: 3812876574508226176, guid: bc49891f572f1164e9938f845ec37ab0,
    type: 3}
  m_PrefabInstance: {fileID: 1978138209276602908}
  m_PrefabAsset: {fileID: 0}
