%YAML 1.1
%TAG !u! tag:unity3d.com,2011:
--- !u!1 &7668250415544550398
GameObject:
  m_ObjectHideFlags: 0
  m_CorrespondingSourceObject: {fileID: 0}
  m_PrefabInstance: {fileID: 0}
  m_PrefabAsset: {fileID: 0}
  serializedVersion: 6
  m_Component:
  - component: {fileID: 4492532842434572810}
  - component: {fileID: 7280062295678323963}
  m_Layer: 0
  m_Name: CheeseBlock
  m_TagString: Untagged
  m_Icon: {fileID: 0}
  m_NavMeshLayer: 0
  m_StaticEditorFlags: 0
  m_IsActive: 1
--- !u!4 &4492532842434572810
Transform:
  m_ObjectHideFlags: 0
  m_CorrespondingSourceObject: {fileID: 0}
  m_PrefabInstance: {fileID: 0}
  m_PrefabAsset: {fileID: 0}
  m_GameObject: {fileID: 7668250415544550398}
  serializedVersion: 2
  m_LocalRotation: {x: 0, y: 0, z: 0, w: 1}
  m_LocalPosition: {x: -0.7256387, y: -6.408374, z: 2.0192428}
  m_LocalScale: {x: 1, y: 1, z: 1}
  m_ConstrainProportionsScale: 0
  m_Children:
  - {fileID: 7740622602170425949}
  m_Father: {fileID: 0}
  m_LocalEulerAnglesHint: {x: 0, y: 0, z: 0}
--- !u!114 &7280062295678323963
MonoBehaviour:
  m_ObjectHideFlags: 0
  m_CorrespondingSourceObject: {fileID: 0}
  m_PrefabInstance: {fileID: 0}
  m_PrefabAsset: {fileID: 0}
  m_GameObject: {fileID: 7668250415544550398}
  m_Enabled: 1
  m_EditorHideFlags: 0
  m_Script: {fileID: 11500000, guid: b9f31aa4a81b37a41bdab0bc531b1d11, type: 3}
  m_Name: 
  m_EditorClassIdentifier: 
  kitchenObjectSO: {fileID: 11400000, guid: fc7db1ac88090634a93771081e4f3617, type: 2}
--- !u!1001 &6883250883942085853
PrefabInstance:
  m_ObjectHideFlags: 0
  serializedVersion: 2
  m_Modification:
    serializedVersion: 3
    m_TransformParent: {fileID: 4492532842434572810}
    m_Modifications:
    - target: {fileID: 3812876574508226176, guid: 44325c67017631342b5f02792113e57b,
        type: 3}
      propertyPath: m_LocalPosition.x
      value: 0
      objectReference: {fileID: 0}
    - target: {fileID: 3812876574508226176, guid: 44325c67017631342b5f02792113e57b,
        type: 3}
      propertyPath: m_LocalPosition.y
      value: 0
      objectReference: {fileID: 0}
    - target: {fileID: 3812876574508226176, guid: 44325c67017631342b5f02792113e57b,
        type: 3}
      propertyPath: m_LocalPosition.z
      value: 0
      objectReference: {fileID: 0}
    - target: {fileID: 3812876574508226176, guid: 44325c67017631342b5f02792113e57b,
        type: 3}
      propertyPath: m_LocalRotation.w
      value: 1
      objectReference: {fileID: 0}
    - target: {fileID: 3812876574508226176, guid: 44325c67017631342b5f02792113e57b,
        type: 3}
      propertyPath: m_LocalRotation.x
      value: 0
      objectReference: {fileID: 0}
    - target: {fileID: 3812876574508226176, guid: 44325c67017631342b5f02792113e57b,
        type: 3}
      propertyPath: m_LocalRotation.y
      value: 0
      objectReference: {fileID: 0}
    - target: {fileID: 3812876574508226176, guid: 44325c67017631342b5f02792113e57b,
        type: 3}
      propertyPath: m_LocalRotation.z
      value: 0
      objectReference: {fileID: 0}
    - target: {fileID: 3812876574508226176, guid: 44325c67017631342b5f02792113e57b,
        type: 3}
      propertyPath: m_LocalEulerAnglesHint.x
      value: 0
      objectReference: {fileID: 0}
    - target: {fileID: 3812876574508226176, guid: 44325c67017631342b5f02792113e57b,
        type: 3}
      propertyPath: m_LocalEulerAnglesHint.y
      value: 0
      objectReference: {fileID: 0}
    - target: {fileID: 3812876574508226176, guid: 44325c67017631342b5f02792113e57b,
        type: 3}
      propertyPath: m_LocalEulerAnglesHint.z
      value: 0
      objectReference: {fileID: 0}
    - target: {fileID: 3812876574508226177, guid: 44325c67017631342b5f02792113e57b,
        type: 3}
      propertyPath: m_Name
      value: CheeseBlock_Visual
      objectReference: {fileID: 0}
    m_RemovedComponents: []
    m_RemovedGameObjects: []
    m_AddedGameObjects: []
    m_AddedComponents: []
  m_SourcePrefab: {fileID: 100100000, guid: 44325c67017631342b5f02792113e57b, type: 3}
--- !u!4 &7740622602170425949 stripped
Transform:
  m_CorrespondingSourceObject: {fileID: 3812876574508226176, guid: 44325c67017631342b5f02792113e57b,
    type: 3}
  m_PrefabInstance: {fileID: 6883250883942085853}
  m_PrefabAsset: {fileID: 0}
