%YAML 1.1
%TAG !u! tag:unity3d.com,2011:
--- !u!114 &11400000
MonoBehaviour:
  m_ObjectHideFlags: 0
  m_CorrespondingSourceObject: {fileID: 0}
  m_PrefabInstance: {fileID: 0}
  m_PrefabAsset: {fileID: 0}
  m_GameObject: {fileID: 0}
  m_Enabled: 1
  m_EditorHideFlags: 0
  m_Script: {fileID: 11500000, guid: b584a33baa168074ea247bfa2840b318, type: 3}
  m_Name: CheeseBlockSO
  m_EditorClassIdentifier: 
  Objectname: CheeseBlock
  sprite: {fileID: 21300000, guid: da2d04fe27b94e34ea0b624569b48a6f, type: 3}
  prefab: {fileID: 4492532842434572810, guid: 1b23790cc3a98a94fa2dc06383aee06d, type: 3}
