%YAML 1.1
%TAG !u! tag:unity3d.com,2011:
--- !u!114 &11400000
MonoBehaviour:
  m_ObjectHideFlags: 0
  m_CorrespondingSourceObject: {fileID: 0}
  m_PrefabInstance: {fileID: 0}
  m_PrefabAsset: {fileID: 0}
  m_GameObject: {fileID: 0}
  m_Enabled: 1
  m_EditorHideFlags: 0
  m_Script: {fileID: 11500000, guid: b584a33baa168074ea247bfa2840b318, type: 3}
  m_Name: MeatPattyBurnedSO
  m_EditorClassIdentifier: 
  Objectname: MeatPattyBurned
  sprite: {fileID: 21300000, guid: 713ea9afa60dd6e4ebf6503a33e8cc99, type: 3}
  prefab: {fileID: 6518682763546075909, guid: 6cf61aa1bf7ce334fae0e9be8478d698, type: 3}
