%YAML 1.1
%TAG !u! tag:unity3d.com,2011:
--- !u!114 &11400000
MonoBehaviour:
  m_ObjectHideFlags: 0
  m_CorrespondingSourceObject: {fileID: 0}
  m_PrefabInstance: {fileID: 0}
  m_PrefabAsset: {fileID: 0}
  m_GameObject: {fileID: 0}
  m_Enabled: 1
  m_EditorHideFlags: 0
  m_Script: {fileID: 11500000, guid: 21d08712cda40094baa4e66eb129b642, type: 3}
  m_Name: BurgerSO
  m_EditorClassIdentifier: 
  recipeName: Burger
  kitchenObjectSOList:
  - {fileID: 11400000, guid: af2c1fdf836f1204dbc4dfa4b0ee9f61, type: 2}
  - {fileID: 11400000, guid: 966f1eae894d5d64588a9dec01568acc, type: 2}
